{
    "name": "StateInput",
    "maps": [
        {
            "name": "StateControls",
            "id": "356a259b-2e27-4c6c-81f0-de11a2601b57",
            "actions": [
                {
                    "name": "Select",
                    "type": "Button",
                    "id": "4630f91c-9ab9-4709-95cc-188b54d691f5",
                    "expectedControlType": "Button",
                    "processors": "",
                    "interactions": "",
                    "initialStateCheck": false
                },
                {
                    "name": "Back",
                    "type": "Button",
                    "id": "6babc5ec-1b64-4466-aa51-8188f81e1c58",
                    "expectedControlType": "Button",
                    "processors": "",
                    "interactions": "",
                    "initialStateCheck": false
                },
                {
                    "name": "X",
                    "type": "Value",
                    "id": "c4b223f6-1112-47ce-9c77-f071c9adc34c",
                    "expectedControlType": "Axis",
                    "processors": "",
                    "interactions": "",
                    "initialStateCheck": true
                },
                {
                    "name": "Y",
                    "type": "Value",
                    "id": "57ba0baf-bf7b-47e8-939d-e1088e963c56",
                    "expectedControlType": "Axis",
                    "processors": "",
                    "interactions": "",
                    "initialStateCheck": true
                }
            ],
            "bindings": [
                {
                    "name": "",
                    "id": "375f2769-6ea0-4377-9a6d-ee5cb07951b0",
                    "path": "<Mouse>/leftButton",
                    "interactions": "",
                    "processors": "",
                    "groups": "",
                    "action": "Select",
                    "isComposite": false,
                    "isPartOfComposite": false
                },
                {
                    "name": "",
                    "id": "51a20d2e-6e6a-4669-a0bb-cb5134440402",
                    "path": "<Mouse>/rightButton",
                    "interactions": "",
                    "processors": "",
                    "groups": "",
                    "action": "Back",
                    "isComposite": false,
                    "isPartOfComposite": false
                },
                {
                    "name": "",
                    "id": "18c01627-dc99-4f7b-b706-b0d094b8a115",
                    "path": "<Mouse>/delta/x",
                    "interactions": "",
                    "processors": "",
                    "groups": "",
                    "action": "X",
                    "isComposite": false,
                    "isPartOfComposite": false
                },
                {
                    "name": "",
                    "id": "a9334560-5f9b-4e1a-b40f-638cf4394abe",
                    "path": "<Mouse>/delta/y",
                    "interactions": "",
                    "processors": "",
                    "groups": "",
                    "action": "Y",
                    "isComposite": false,
                    "isPartOfComposite": false
                }
            ]
        }
    ],
    "controlSchemes": []
}